<?xml version="1.0" encoding="utf-8"?>
<!-- Generator: Adobe Illustrator 15.0.0, SVG Export Plug-In . SVG Version: 6.00 Build 0)  -->
<!DOCTYPE svg PUBLIC "-//W3C//DTD SVG 1.1//EN" "http://www.w3.org/Graphics/SVG/1.1/DTD/svg11.dtd">
<svg version="1.1" id="Ebene_1" xmlns="http://www.w3.org/2000/svg" xmlns:xlink="http://www.w3.org/1999/xlink" x="0px" y="0px"
	 width="64px" height="64px" viewBox="0 0 64 64" enable-background="new 0 0 64 64" xml:space="preserve">
<path opacity="0.2" enable-background="new    " d="M10,41v9.777C10,52.009,10.981,53,12.2,53h39.6c1.22,0,2.2-0.991,2.2-2.223V41
	H10z"/>
<path fill="#FF766A" d="M54,49.777V14.223C54,12.992,53.02,12,51.8,12H12.2c-1.219,0-2.2,0.991-2.2,2.222v35.555
	C10,51.009,10.981,52,12.2,52h39.6C53.02,52,54,51.009,54,49.777z"/>
<path opacity="0.2" fill="#FFFFFF" enable-background="new    " d="M12.199,12C10.98,12,10,12.992,10,14.223v1
	C10,13.992,10.98,13,12.199,13h39.602C53.02,13,54,13.992,54,15.223v-1C54,12.992,53.02,12,51.801,12H12.199z"/>
<path opacity="0.2" enable-background="new    " d="M42,21c3.313,0,6,2.687,6,6c0,3.314-2.688,6-6,6c-3.314,0-6-2.686-6-6
	C36,23.687,38.686,21,42,21z"/>
<path fill="#FFFEE4" d="M42,20c3.313,0,6,2.687,6,6c0,3.314-2.688,6-6,6c-3.314,0-6-2.686-6-6C36,22.687,38.686,20,42,20z"/>
<path fill="#D22F7A" d="M10,40v9.777C10,51.009,10.981,52,12.2,52h39.6c1.22,0,2.2-0.991,2.2-2.223V40H10z"/>
<path fill="#3F3F3F" d="M10,40v-1.09c0,0,3.173-2.48,4.065-2.697s1.945-0.041,3.028,0.201c1.083,0.24,2.699,1.789,3.204,1.811
	c0.505,0.021,1.417-0.053,2.478-0.129c1.061-0.074,2.817-0.143,3.365-0.136c0.548,0,1.916,0.089,3.373,0.194
	c1.458,0.105,3.459,0.283,3.915,0.332c0.453,0.049,0.988,0.141,1.594,0.238c0.606,0.098,1.654,0.248,2.026,0.289
	c0.371,0.039,1.231,0.18,2.229,0.289c0.998,0.107,2.596,0.145,3.058,0.104c0.462-0.04,1.429-0.444,2.506-0.817
	c1.078-0.372,2.267-0.713,3.171-0.629C48.915,38.045,54,38.91,54,38.91V40H15.344H10z"/>
<path display="none" opacity="0.2" enable-background="new    " d="M6.969,6.971C5.312,6.973,3.97,8.318,3.972,9.975
	c0,0.135,0.009,0.271,0.028,0.404V21c-0.022,1.657,1.303,3.018,2.96,3.04c1.657,0.022,3.018-1.303,3.04-2.96c0-0.027,0-0.053,0-0.08
	v-3.758l8.879,8.879c1.148,1.194,3.047,1.232,4.242,0.084c1.195-1.148,1.232-3.047,0.084-4.242
	c-0.027-0.028-0.056-0.057-0.084-0.084L14.242,13H18c1.657,0.022,3.018-1.303,3.04-2.96c0.022-1.657-1.303-3.018-2.96-3.04
	C18.053,7,18.027,7,18,7H7.371C7.238,6.982,7.104,6.972,6.969,6.971z M42.969,38.971c-1.656,0.002-2.998,1.346-2.998,3.004
	c0.002,0.81,0.328,1.582,0.908,2.146L49.758,53H46c-1.656-0.021-3.018,1.305-3.04,2.961s1.304,3.018,2.96,3.039
	c0.027,0.001,0.053,0.001,0.08,0h10.629c1.643,0.221,3.152-0.934,3.372-2.574c0.036-0.268,0.035-0.537-0.001-0.805V45
	c0.021-1.656-1.303-3.018-2.96-3.039c-1.657-0.023-3.019,1.303-3.04,2.959c0,0.027,0,0.055,0,0.08v3.758l-8.879-8.879
	C44.557,39.299,43.779,38.971,42.969,38.971z"/>
<path fill="none" stroke="#393939" stroke-width="4.9999" stroke-linecap="round" stroke-linejoin="round" d="M7,9l14,14 M7,20V9h11
	l0,0l0,0l0,0"/>
<path fill="none" stroke="#393939" stroke-width="4.9999" stroke-linecap="round" stroke-linejoin="round" d="M57,55L43,41 M57,44
	v11H46l0,0l0,0l0,0"/>
<rect x="10" y="40" opacity="0.1" fill="#FFFFFF" enable-background="new    " width="44" height="1"/>
<path display="none" opacity="0.2" fill="#FFFFFF" enable-background="new    " d="M6.969,5.971C5.312,5.973,3.97,7.318,3.972,8.975
	c0,0.135,0.009,0.27,0.028,0.404V9.59c0.191-1.495,1.462-2.616,2.969-2.619c0.135,0,0.269,0.01,0.402,0.029H18
	c1.481-0.018,2.753,1.047,2.996,2.508c0.28-1.633-0.816-3.184-2.449-3.465C18.366,6.012,18.183,5.998,18,6H7.371
	C7.238,5.981,7.104,5.971,6.969,5.971z M14.242,13l8.879,8.879c0.465,0.448,0.772,1.035,0.877,1.672
	c0.169-0.981-0.16-1.982-0.877-2.672L15.242,13H14.242z M42.969,37.971c-1.656,0.004-2.996,1.35-2.992,3.008
	c0,0.162,0.014,0.322,0.039,0.482c0.248-1.438,1.494-2.488,2.953-2.49c0.811,0,1.588,0.327,2.152,0.908L54,48.758v-1l-8.879-8.879
	C44.557,38.298,43.779,37.971,42.969,37.971z M56.953,40.961C55.299,40.986,53.979,42.346,54,44v1
	c-0.021-1.656,1.303-3.018,2.96-3.04s3.019,1.304,3.04,2.96c0,0.027,0,0.053,0,0.08v-1c0.021-1.656-1.305-3.018-2.961-3.039
	C57.01,40.961,56.982,40.961,56.953,40.961z M46,52c-1.656-0.02-3.018,1.307-3.037,2.963c-0.002,0.178,0.012,0.354,0.041,0.529
	C43.254,54.037,44.523,52.98,46,53h3.758l-1-1H46z M60,54.621v0.791C60.035,55.148,60.035,54.884,60,54.621z"/>
</svg>
