<?xml version="1.0" encoding="UTF-8" standalone="no"?>
<svg
   xmlns:dc="http://purl.org/dc/elements/1.1/"
   xmlns:cc="http://creativecommons.org/ns#"
   xmlns:rdf="http://www.w3.org/1999/02/22-rdf-syntax-ns#"
   xmlns:svg="http://www.w3.org/2000/svg"
   xmlns="http://www.w3.org/2000/svg"
   version="1.1"
   id="svg842"
   xml:space="preserve"
   width="32"
   height="32"
   viewBox="0 0 32 32"><metadata
     id="metadata848"><rdf:RDF><cc:Work
         rdf:about=""><dc:format>image/svg+xml</dc:format><dc:type
           rdf:resource="http://purl.org/dc/dcmitype/StillImage" /><dc:title></dc:title></cc:Work></rdf:RDF></metadata><defs
     id="defs846"><clipPath
       clipPathUnits="userSpaceOnUse"
       id="clipPath862"><path
         d="M 0,24 H 24 V 0 H 0 Z"
         id="path860" /></clipPath></defs><g
     id="g850"
     transform="matrix(1.3333333,0,0,-1.3333333,0,32)"><g
       id="g852"
       transform="translate(1.5003,24.0003)"><path
         d="M 0,0 V -21.001 H -1.5 V -22.5 H 0 V -24 h 1.499 v 1.5 H 22.5 v 1.499 H 1.499 v 5.499 H 4.5 v 1.501 H 1.499 V -1.5 H 4.5 L 4.5,0 Z M 1.511,-8.5 H 4.512 V -7 H 1.511 Z"
         style="fill:#444444;fill-opacity:1;fill-rule:nonzero;stroke:none"
         id="path854" /></g><g
       id="g856"><g
         id="g858"
         clip-path="url(#clipPath862)"><g
           id="g864"
           transform="translate(16.4141,5.791)"><path
             d="m 0,0 -4.039,11.896 h 8.777 c 1.644,0.067 1.83,-1.087 1.83,-1.087 V 1.298 C 6.568,1.298 6.856,0 5.116,0 Z M 1.109,7.215 H 4.072 C 3.989,6.681 3.705,6.111 3.229,5.521 2.925,6.007 2.729,6.479 2.617,6.794 2.589,6.873 2.515,6.926 2.43,6.926 H 1.942 C 1.879,6.926 1.819,6.896 1.782,6.845 1.745,6.793 1.733,6.728 1.753,6.667 1.869,6.304 2.135,5.589 2.627,4.863 2.046,4.298 1.467,3.891 1.242,3.741 1.153,3.682 1.128,3.562 1.185,3.471 L 1.43,3.079 C 1.458,3.034 1.504,3.002 1.556,2.99 1.569,2.987 1.584,2.985 1.599,2.985 1.637,2.985 1.675,2.997 1.707,3.019 1.938,3.17 2.536,3.584 3.163,4.184 3.395,3.942 3.939,3.519 4.263,3.284 4.312,3.248 4.375,3.237 4.434,3.254 4.492,3.271 4.54,3.313 4.563,3.369 L 4.746,3.815 C 4.782,3.905 4.749,4.009 4.667,4.06 4.456,4.19 4.061,4.458 3.737,4.807 4.447,5.638 4.852,6.447 4.94,7.215 h 0.158 c 0.109,0 0.198,0.089 0.198,0.199 v 0.529 c 0,0.11 -0.089,0.199 -0.198,0.199 H 3.55 v 0.272 c 0,0.11 -0.089,0.199 -0.199,0.199 H 2.855 C 2.746,8.613 2.656,8.524 2.656,8.414 V 8.142 H 1.109 C 0.999,8.142 0.91,8.053 0.91,7.943 V 7.414 c 0,-0.11 0.089,-0.199 0.199,-0.199"
             style="fill:#3498db;fill-opacity:1;fill-rule:nonzero;stroke:none"
             id="path866" /></g><g
           id="g868"
           transform="translate(14.0996,20.396)"><path
             d="m 0,0 3.963,-11.808 h -9.171 c -1.436,-0.067 -1.455,1.079 -1.455,1.079 v 9.439 c 0,0 0.038,1.289 1.559,1.289 z m -3.016,-6.274 0.57,2.186 h 0.014 l 0.61,-2.186 h -1.194 m 1.476,2.94 c -0.03,0.095 -0.118,0.16 -0.218,0.16 h -1.265 c -0.1,0 -0.188,-0.065 -0.218,-0.161 l -1.511,-4.943 c -0.022,-0.069 -0.009,-0.143 0.034,-0.202 0.043,-0.058 0.111,-0.092 0.183,-0.092 h 0.785 c 0.103,0 0.192,0.069 0.219,0.167 l 0.339,1.219 h 1.546 l 0.368,-1.224 c 0.029,-0.096 0.117,-0.162 0.218,-0.162 h 0.834 c 0.073,0 0.141,0.034 0.184,0.092 0.043,0.059 0.055,0.134 0.033,0.203 l -1.531,4.943"
             style="fill:#2ecc71;fill-opacity:1;fill-rule:nonzero;stroke:none"
             id="path870" /></g><g
           id="g872"
           transform="translate(16.4141,5.791)"><path
             d="M 0,0 1.648,2.797 -0.977,2.803 Z"
             style="fill:#2ecc71;fill-opacity:1;fill-rule:nonzero;stroke:none"
             id="path874" /></g></g></g></g></svg>
