<?xml version="1.0" encoding="UTF-8" standalone="no"?>
<svg
   xmlns:dc="http://purl.org/dc/elements/1.1/"
   xmlns:cc="http://creativecommons.org/ns#"
   xmlns:rdf="http://www.w3.org/1999/02/22-rdf-syntax-ns#"
   xmlns:svg="http://www.w3.org/2000/svg"
   xmlns="http://www.w3.org/2000/svg"
   xmlns:sodipodi="http://sodipodi.sourceforge.net/DTD/sodipodi-0.dtd"
   xmlns:inkscape="http://www.inkscape.org/namespaces/inkscape"
   version="1.1"
   id="svg833"
   xml:space="preserve"
   width="682.66669"
   height="682.66669"
   viewBox="0 0 682.66669 682.66669"
   sodipodi:docname="merge-files.svg"
   inkscape:version="1.0.2-2 (e86c870879, 2021-01-15)"><metadata
     id="metadata839"><rdf:RDF><cc:Work
         rdf:about=""><dc:format>image/svg+xml</dc:format><dc:type
           rdf:resource="http://purl.org/dc/dcmitype/StillImage" /><dc:title></dc:title></cc:Work></rdf:RDF></metadata><defs
     id="defs837"><clipPath
       clipPathUnits="userSpaceOnUse"
       id="clipPath849"><path
         d="M 0,512 H 512 V 0 H 0 Z"
         id="path847" /></clipPath><clipPath
       clipPathUnits="userSpaceOnUse"
       id="clipPath857"><path
         d="M 32.0005,476 H 480 V 28 H 32.0005 Z"
         id="path855" /></clipPath><clipPath
       clipPathUnits="userSpaceOnUse"
       id="clipPath891"><path
         d="M 280,478 V 334 h 12 V 174 H 240 L 92.001,30 H 444 c 19.944,0 36,16.056 36,36 v 0 108 160 108 c 0,19.944 -16.056,36 -36,36 v 0 z"
         id="path889" /></clipPath><clipPath
       clipPathUnits="userSpaceOnUse"
       id="clipPath903"><path
         d="M 0,512 H 512 V 0 H 0 Z"
         id="path901" /></clipPath><clipPath
       clipPathUnits="userSpaceOnUse"
       id="clipPath915"><path
         d="M 32.0005,478 H 480 V 440 H 32.0005 Z"
         id="path913" /></clipPath><clipPath
       clipPathUnits="userSpaceOnUse"
       id="clipPath4412"><path
         style="fill:#03a9f4;fill-opacity:1;stroke:none"
         d="m 171,239 0,14 1,0 0,14 -1,0 -14,14 29,0 c 1.662,0 3,-1.338 3,-3 l 0,-11 0,-14 0,-11 c 0,-1.662 -1.338,-3 -3,-3 l -15,0 z"
         id="path4414"
         inkscape:connector-curvature="0" /></clipPath><filter
       inkscape:collect="always"
       style="color-interpolation-filters:sRGB"
       id="filter4420"
       x="-0.15"
       width="1.3"
       y="-0.1"
       height="1.2"><feGaussianBlur
         inkscape:collect="always"
         stdDeviation="1.75"
         id="feGaussianBlur4422" /></filter><filter
       inkscape:collect="always"
       style="color-interpolation-filters:sRGB"
       id="filter4415"
       x="-0.024"
       width="1.048"
       y="-0.024"
       height="1.048"><feGaussianBlur
         inkscape:collect="always"
         stdDeviation="4.48"
         id="feGaussianBlur4417" /></filter><clipPath
       clipPathUnits="userSpaceOnUse"
       id="clipPath1843"><path
         style="fill:#03a9f4;fill-opacity:1;stroke:none"
         d="m 171,239 0,14 1,0 0,14 -1,0 -14,14 29,0 c 1.662,0 3,-1.338 3,-3 l 0,-11 0,-14 0,-11 c 0,-1.662 -1.338,-3 -3,-3 l -15,0 z"
         id="path1841"
         inkscape:connector-curvature="0" /></clipPath><clipPath
       clipPathUnits="userSpaceOnUse"
       id="clipPath4490"><path
         style="fill:#3f51b5;fill-opacity:1;stroke:none"
         d="m 107,253 0,10 0,10 6,0 -10,10 21,0 c 1.662,0 3,-1.338 3,-3 l 0,-7 0,-10 0,-7 c 0,-1.662 -1.338,-3 -3,-3 l -17,0 z"
         id="path4492"
         inkscape:connector-curvature="0" /></clipPath><filter
       inkscape:collect="always"
       style="color-interpolation-filters:sRGB"
       id="filter4494"
       x="-0.075"
       width="1.15"
       y="-0.05"
       height="1.1"><feGaussianBlur
         inkscape:collect="always"
         stdDeviation="0.625"
         id="feGaussianBlur4496" /></filter><clipPath
       clipPathUnits="userSpaceOnUse"
       id="clipPath4587"><path
         style="fill:#2196f3;fill-opacity:1;stroke:none"
         d="m 488,-196 0,144 12,0 0,160 -52,0 -148,144 352,0 c 19.944,0 36,-16.056 36,-36 l 0,-108 0,-160 0,-108 c 0,-19.944 -16.056,-36 -36,-36 l -164,0 z"
         id="path4589"
         inkscape:connector-curvature="0" /></clipPath><filter
       inkscape:collect="always"
       style="color-interpolation-filters:sRGB"
       id="filter4595"
       x="-0.076666667"
       width="1.1533333"
       y="-0.049285714"
       height="1.0985714"><feGaussianBlur
         inkscape:collect="always"
         stdDeviation="9.2"
         id="feGaussianBlur4597" /></filter><clipPath
       clipPathUnits="userSpaceOnUse"
       id="clipPath1859"><path
         style="fill:#03a9f4;fill-opacity:1;stroke:none"
         d="m 171,239 0,14 1,0 0,14 -1,0 -14,14 29,0 c 1.662,0 3,-1.338 3,-3 l 0,-11 0,-14 0,-11 c 0,-1.662 -1.338,-3 -3,-3 l -15,0 z"
         id="path1857"
         inkscape:connector-curvature="0" /></clipPath><clipPath
       clipPathUnits="userSpaceOnUse"
       id="clipPath1875"><path
         style="fill:#03a9f4;fill-opacity:1;stroke:none"
         d="m 171,239 0,14 1,0 0,14 -1,0 -14,14 29,0 c 1.662,0 3,-1.338 3,-3 l 0,-11 0,-14 0,-11 c 0,-1.662 -1.338,-3 -3,-3 l -15,0 z"
         id="path1873"
         inkscape:connector-curvature="0" /></clipPath><clipPath
       clipPathUnits="userSpaceOnUse"
       id="clipPath1883"><path
         style="fill:#3f51b5;fill-opacity:1;stroke:none"
         d="m 107,253 0,10 0,10 6,0 -10,10 21,0 c 1.662,0 3,-1.338 3,-3 l 0,-7 0,-10 0,-7 c 0,-1.662 -1.338,-3 -3,-3 l -17,0 z"
         id="path1881"
         inkscape:connector-curvature="0" /></clipPath><clipPath
       clipPathUnits="userSpaceOnUse"
       id="clipPath1891"><path
         style="fill:#2196f3;fill-opacity:1;stroke:none"
         d="m 488,-196 0,144 12,0 0,160 -52,0 -148,144 352,0 c 19.944,0 36,-16.056 36,-36 l 0,-108 0,-160 0,-108 c 0,-19.944 -16.056,-36 -36,-36 l -164,0 z"
         id="path1889"
         inkscape:connector-curvature="0" /></clipPath><clipPath
       clipPathUnits="userSpaceOnUse"
       id="clipPath4412-8"><path
         style="fill:#03a9f4;fill-opacity:1;stroke:none"
         d="m 171,239 0,14 1,0 0,14 -1,0 -14,14 29,0 c 1.662,0 3,-1.338 3,-3 l 0,-11 0,-14 0,-11 c 0,-1.662 -1.338,-3 -3,-3 l -15,0 z"
         id="path4414-6"
         inkscape:connector-curvature="0" /></clipPath><clipPath
       clipPathUnits="userSpaceOnUse"
       id="clipPath1843-9"><path
         style="fill:#03a9f4;fill-opacity:1;stroke:none"
         d="m 171,239 0,14 1,0 0,14 -1,0 -14,14 29,0 c 1.662,0 3,-1.338 3,-3 l 0,-11 0,-14 0,-11 c 0,-1.662 -1.338,-3 -3,-3 l -15,0 z"
         id="path1841-2"
         inkscape:connector-curvature="0" /></clipPath><clipPath
       clipPathUnits="userSpaceOnUse"
       id="clipPath4490-8"><path
         style="fill:#3f51b5;fill-opacity:1;stroke:none"
         d="m 107,253 0,10 0,10 6,0 -10,10 21,0 c 1.662,0 3,-1.338 3,-3 l 0,-7 0,-10 0,-7 c 0,-1.662 -1.338,-3 -3,-3 l -17,0 z"
         id="path4492-8"
         inkscape:connector-curvature="0" /></clipPath><clipPath
       clipPathUnits="userSpaceOnUse"
       id="clipPath4587-3"><path
         style="fill:#2196f3;fill-opacity:1;stroke:none"
         d="m 488,-196 0,144 12,0 0,160 -52,0 -148,144 352,0 c 19.944,0 36,-16.056 36,-36 l 0,-108 0,-160 0,-108 c 0,-19.944 -16.056,-36 -36,-36 l -164,0 z"
         id="path4589-5"
         inkscape:connector-curvature="0" /></clipPath><clipPath
       clipPathUnits="userSpaceOnUse"
       id="clipPath1859-8"><path
         style="fill:#03a9f4;fill-opacity:1;stroke:none"
         d="m 171,239 0,14 1,0 0,14 -1,0 -14,14 29,0 c 1.662,0 3,-1.338 3,-3 l 0,-11 0,-14 0,-11 c 0,-1.662 -1.338,-3 -3,-3 l -15,0 z"
         id="path1857-5"
         inkscape:connector-curvature="0" /></clipPath><clipPath
       clipPathUnits="userSpaceOnUse"
       id="clipPath1875-0"><path
         style="fill:#03a9f4;fill-opacity:1;stroke:none"
         d="m 171,239 0,14 1,0 0,14 -1,0 -14,14 29,0 c 1.662,0 3,-1.338 3,-3 l 0,-11 0,-14 0,-11 c 0,-1.662 -1.338,-3 -3,-3 l -15,0 z"
         id="path1873-1"
         inkscape:connector-curvature="0" /></clipPath><clipPath
       clipPathUnits="userSpaceOnUse"
       id="clipPath1883-8"><path
         style="fill:#3f51b5;fill-opacity:1;stroke:none"
         d="m 107,253 0,10 0,10 6,0 -10,10 21,0 c 1.662,0 3,-1.338 3,-3 l 0,-7 0,-10 0,-7 c 0,-1.662 -1.338,-3 -3,-3 l -17,0 z"
         id="path1881-4"
         inkscape:connector-curvature="0" /></clipPath><clipPath
       clipPathUnits="userSpaceOnUse"
       id="clipPath1891-0"><path
         style="fill:#2196f3;fill-opacity:1;stroke:none"
         d="m 488,-196 0,144 12,0 0,160 -52,0 -148,144 352,0 c 19.944,0 36,-16.056 36,-36 l 0,-108 0,-160 0,-108 c 0,-19.944 -16.056,-36 -36,-36 l -164,0 z"
         id="path1889-8"
         inkscape:connector-curvature="0" /></clipPath><clipPath
       clipPathUnits="userSpaceOnUse"
       id="clipPath4412-1"><path
         style="fill:#03a9f4;fill-opacity:1;stroke:none"
         d="m 171,239 0,14 1,0 0,14 -1,0 -14,14 29,0 c 1.662,0 3,-1.338 3,-3 l 0,-11 0,-14 0,-11 c 0,-1.662 -1.338,-3 -3,-3 l -15,0 z"
         id="path4414-7"
         inkscape:connector-curvature="0" /></clipPath><clipPath
       clipPathUnits="userSpaceOnUse"
       id="clipPath1922"><path
         style="fill:#03a9f4;fill-opacity:1;stroke:none"
         d="m 171,239 0,14 1,0 0,14 -1,0 -14,14 29,0 c 1.662,0 3,-1.338 3,-3 l 0,-11 0,-14 0,-11 c 0,-1.662 -1.338,-3 -3,-3 l -15,0 z"
         id="path1920"
         inkscape:connector-curvature="0" /></clipPath><clipPath
       clipPathUnits="userSpaceOnUse"
       id="clipPath4490-87"><path
         style="fill:#3f51b5;fill-opacity:1;stroke:none"
         d="m 107,253 0,10 0,10 6,0 -10,10 21,0 c 1.662,0 3,-1.338 3,-3 l 0,-7 0,-10 0,-7 c 0,-1.662 -1.338,-3 -3,-3 l -17,0 z"
         id="path4492-9"
         inkscape:connector-curvature="0" /></clipPath><clipPath
       clipPathUnits="userSpaceOnUse"
       id="clipPath4587-4"><path
         style="fill:#2196f3;fill-opacity:1;stroke:none"
         d="m 488,-196 0,144 12,0 0,160 -52,0 -148,144 352,0 c 19.944,0 36,-16.056 36,-36 l 0,-108 0,-160 0,-108 c 0,-19.944 -16.056,-36 -36,-36 l -164,0 z"
         id="path4589-6"
         inkscape:connector-curvature="0" /></clipPath><clipPath
       clipPathUnits="userSpaceOnUse"
       id="clipPath1938"><path
         style="fill:#03a9f4;fill-opacity:1;stroke:none"
         d="m 171,239 0,14 1,0 0,14 -1,0 -14,14 29,0 c 1.662,0 3,-1.338 3,-3 l 0,-11 0,-14 0,-11 c 0,-1.662 -1.338,-3 -3,-3 l -15,0 z"
         id="path1936"
         inkscape:connector-curvature="0" /></clipPath><clipPath
       clipPathUnits="userSpaceOnUse"
       id="clipPath1954"><path
         style="fill:#03a9f4;fill-opacity:1;stroke:none"
         d="m 171,239 0,14 1,0 0,14 -1,0 -14,14 29,0 c 1.662,0 3,-1.338 3,-3 l 0,-11 0,-14 0,-11 c 0,-1.662 -1.338,-3 -3,-3 l -15,0 z"
         id="path1952"
         inkscape:connector-curvature="0" /></clipPath><clipPath
       clipPathUnits="userSpaceOnUse"
       id="clipPath1962"><path
         style="fill:#3f51b5;fill-opacity:1;stroke:none"
         d="m 107,253 0,10 0,10 6,0 -10,10 21,0 c 1.662,0 3,-1.338 3,-3 l 0,-7 0,-10 0,-7 c 0,-1.662 -1.338,-3 -3,-3 l -17,0 z"
         id="path1960"
         inkscape:connector-curvature="0" /></clipPath><clipPath
       clipPathUnits="userSpaceOnUse"
       id="clipPath1970"><path
         style="fill:#2196f3;fill-opacity:1;stroke:none"
         d="m 488,-196 0,144 12,0 0,160 -52,0 -148,144 352,0 c 19.944,0 36,-16.056 36,-36 l 0,-108 0,-160 0,-108 c 0,-19.944 -16.056,-36 -36,-36 l -164,0 z"
         id="path1968"
         inkscape:connector-curvature="0" /></clipPath></defs><sodipodi:namedview
     pagecolor="#ffffff"
     bordercolor="#666666"
     borderopacity="1"
     objecttolerance="10"
     gridtolerance="10"
     guidetolerance="10"
     inkscape:pageopacity="0"
     inkscape:pageshadow="2"
     inkscape:window-width="1920"
     inkscape:window-height="1001"
     id="namedview835"
     showgrid="false"
     inkscape:zoom="0.61157225"
     inkscape:cx="100.49241"
     inkscape:cy="153.58998"
     inkscape:window-x="-9"
     inkscape:window-y="-9"
     inkscape:window-maximized="1"
     inkscape:current-layer="g902"
     inkscape:document-rotation="0" /><g
     id="g841"
     inkscape:groupmode="layer"
     inkscape:label="calendars-regggd"
     transform="matrix(1.3333333,0,0,-1.3333333,0,682.66667)"><g
       id="g902"><g
         id="g843"><g
           id="g851"><g
             id="g853" /><g
             id="g865"><g
               clip-path="url(#clipPath857)"
               opacity="0.199997"
               id="g863"><g
                 transform="translate(480,64)"
                 id="g861"><path
                   d="m 0,0 v 376 c 0,19.882 -16.117,36 -36,36 h -376 c -19.882,0 -36,-16.118 -36,-36 V 0 c 0,-19.882 16.118,-36 36,-36 h 376 c 19.883,0 36,16.118 36,36"
                   style="fill:#000000;fill-opacity:1;fill-rule:nonzero;stroke:none"
                   id="path859" /></g></g></g></g><g
           id="g875"
           transform="translate(280,478)"><path
             d="m 0,0 v -144 h 200 v 108 c 0,19.944 -16.057,36 -36,36 z"
             style="fill:#2196f3;fill-opacity:1;fill-rule:nonzero;stroke:none"
             id="path877" /></g><path
           d="M 292,334 H 480 V 174 H 292 Z"
           style="fill:#03a9f4;fill-opacity:1;fill-rule:nonzero;stroke:none"
           id="path879" /><g
           id="g881"
           transform="translate(240,174)"><path
             d="m 0,0 -148,-144 h 352 c 19.943,0 36,16.056 36,36 V 0 Z"
             style="fill:#3f51b5;fill-opacity:1;fill-rule:nonzero;stroke:none"
             id="path883" /></g></g><g
         id="g885"><g
           id="g887"
           clip-path="url(#clipPath891)" /></g><g
         id="g905"
         transform="translate(320,478)"><path
           d="m 0,0 h -139 -113 c -19.944,0 -36,-16.056 -36,-36 v -376 c 0,-19.944 16.056,-36 36,-36 h 108 L 0,-304 Z"
           style="fill:#f2f2f2;fill-opacity:1;fill-rule:nonzero;stroke:none"
           id="path907" /></g><g
         id="g909"><g
           id="g911" /><g
           id="g923"><g
             clip-path="url(#clipPath915)"
             opacity="0.199997"
             id="g921"><g
               transform="translate(68.0005,478)"
               id="g919"><path
                 d="m 0,0 c -19.944,0 -36,-16.056 -36,-36 v -2 c 0,19.944 16.056,36 36,36 h 376 c 19.943,0 36,-16.056 36,-36 v 2 c 0,19.944 -16.057,36 -36,36 z"
                 style="fill:#ffffff;fill-opacity:1;fill-rule:nonzero;stroke:none"
                 id="path917" /></g></g></g></g><g
         id="g925"
         transform="translate(183.5,30)"><path
           d="m -7.5,0 144,144 h -108 c -19.943,0 -36,-16.056 -36,-36 z"
           style="fill:#b3b3b3;fill-opacity:1;fill-rule:nonzero;stroke:none"
           id="path927" /></g></g><g
       id="g1897"
       transform="translate(0,244)"><g
         id="use4545"
         style="display:inline;enable-background:new"
         transform="matrix(0.75000002,0,0,-0.75000002,39.79941,-1993.8216)"><rect
           transform="matrix(0,1,1,0,0,0)"
           style="fill:#03a9f4;fill-opacity:1;stroke:none"
           id="rect1105"
           width="6"
           height="9"
           x="273"
           y="23" /><rect
           ry="2"
           rx="2"
           y="-74"
           x="-284"
           height="21"
           width="21"
           id="rect1107"
           style="opacity:0.2;fill:#000000;fill-opacity:1;stroke:none"
           transform="matrix(0,-1,-1,0,0,0)" /><rect
           y="65.5"
           x="269"
           height="8.5"
           width="7"
           id="rect1109"
           style="fill:#03a9f4;fill-opacity:1;stroke:none"
           transform="matrix(0,1,1,0,0,0)" /><path
           style="fill:#3f51b5;fill-opacity:1;stroke:none"
           d="m 65,276 -7,7 h 14 c 2,0 2,-2 2,-2 v -5 z"
           id="path1111"
           inkscape:connector-curvature="0"
           sodipodi:nodetypes="cccccc" /><path
           style="fill:#2196f3;fill-opacity:1;stroke:none"
           d="m 65,262 v 7 h 9 v -5 c 0,0 0,-2 -2,-2 z"
           id="path1113"
           inkscape:connector-curvature="0"
           sodipodi:nodetypes="cccccc" /><path
           transform="matrix(0.5,0,0,0.5,-20.5,142.5)"
           style="opacity:0.2;fill:#000000;fill-opacity:1;stroke:none;filter:url(#filter4420)"
           d="m 147,243 c 0,-1.662 1.338,-3 3,-3 h 25 v 28 l -14,14 h -11 c -1.662,0 -3,-1.338 -3,-3 z"
           id="path1115"
           inkscape:connector-curvature="0"
           sodipodi:nodetypes="sscccsss"
           clip-path="url(#clipPath4412)" /><path
           sodipodi:nodetypes="cccccccc"
           inkscape:connector-curvature="0"
           id="path1117"
           d="m 53,264 c 0,-2 2,-2 2,-2 h 12 v 14 l -7,7 h -5 c 0,0 -2,0 -2,-2 z"
           style="fill:#e6e6e6;fill-opacity:1;stroke:none" /><path
           style="fill:#b3b3b3;fill-opacity:1;fill-rule:evenodd;stroke:none;stroke-width:1px;stroke-linecap:butt;stroke-linejoin:miter;stroke-opacity:1"
           d="m 60,283 v -5 c 0,0 0,-2 2,-2 h 5 z"
           id="path1119"
           inkscape:connector-curvature="0"
           sodipodi:nodetypes="ccccc" /><rect
           ry="36"
           rx="36"
           y="-688"
           x="-254"
           height="448"
           width="448"
           id="rect1121"
           style="opacity:0.2;fill:#000000;fill-opacity:1;stroke:none"
           transform="matrix(0,-1,-1,0,0,0)" /><rect
           transform="matrix(0,-1,-1,0,0,0)"
           style="opacity:0.1;fill:#000000;fill-opacity:1;stroke:none;filter:url(#filter4415)"
           id="rect1123"
           width="448"
           height="448"
           x="-256"
           y="-688"
           rx="36"
           ry="36" /><rect
           ry="36"
           rx="36"
           y="-688"
           x="-256"
           height="448"
           width="448"
           id="rect1125"
           style="opacity:0.2;fill:#000000;fill-opacity:1;stroke:none;filter:url(#filter4415)"
           transform="matrix(0,-1,-1,0,0,0)" /><rect
           transform="matrix(0,-1,-1,0,0,0)"
           style="opacity:0.2;fill:#000000;fill-opacity:1;stroke:none"
           id="rect1127"
           width="41.999985"
           height="42"
           x="-282"
           y="-189"
           rx="3"
           ry="3" /><rect
           transform="matrix(0,-1,-1,0,0,0)"
           style="opacity:0.2;fill:#000000;fill-opacity:1;stroke:none"
           id="rect1129"
           width="30"
           height="30"
           x="-284"
           y="-127"
           rx="3"
           ry="3" /><path
           sodipodi:nodetypes="ccsscc"
           inkscape:connector-curvature="0"
           id="path1131"
           transform="translate(0,-244)"
           d="m 113,517 -10,10 h 21 c 1.662,0 3,-1.338 3,-3 v -7 z"
           style="fill:#3f51b5;fill-opacity:1;stroke:none" /><path
           sodipodi:nodetypes="ssccsss"
           inkscape:connector-curvature="0"
           id="path1133"
           transform="translate(0,-244)"
           d="m 18,512 c -1.108,0 -2,0.892 -2,2 v 3 h 16 v -3 c 0,-1.108 -0.892,-2 -2,-2 z"
           style="display:inline;fill:#2196f3;fill-opacity:1;stroke:none;enable-background:new" /><g
           transform="translate(186.5001,-174.5)"
           style="display:inline"
           inkscape:label="places"
           id="g1135" /><g
           transform="translate(-54.5001,442.5)"
           style="display:inline"
           inkscape:label="mimetypes"
           id="g1137" /><g
           transform="translate(-54.5001,442.5)"
           style="display:inline"
           inkscape:label="emblems"
           id="g1139" /><g
           transform="translate(-54.5001,442.5)"
           style="display:inline"
           inkscape:label="emotes"
           id="g1141" /><g
           transform="translate(186.5001,-24.5)"
           style="display:inline"
           inkscape:label="categories"
           id="g1143" /><g
           transform="translate(186.5001,-24.5)"
           style="display:inline"
           inkscape:label="apps"
           id="g1145" /><g
           transform="translate(-54.5001,442.5)"
           style="display:inline"
           inkscape:label="actions"
           id="g1147" /><path
           sodipodi:nodetypes="cccssc"
           inkscape:connector-curvature="0"
           id="path1149"
           transform="translate(0,-244)"
           d="M 488,48 V 192 H 688 V 84 C 688,64.056 671.944,48 652,48 Z"
           style="fill:#2196f3;fill-opacity:1;stroke:none" /><path
           sodipodi:nodetypes="sscsscsss"
           inkscape:connector-curvature="0"
           id="path1151"
           transform="translate(0,-244)"
           d="m 55,506 c -1.108,0 -2,0.892 -2,2 v 1 c 0,-1.108 0.892,-2 2,-2 h 17 c 1.108,0 2,0.892 2,2 v -1 c 0,-1.108 -0.892,-2 -2,-2 z"
           style="opacity:0.2;fill:#ffffff;fill-opacity:1;stroke:none" /><rect
           transform="matrix(0,1,1,0,0,0)"
           style="fill:#03a9f4;fill-opacity:1;stroke:none"
           id="rect1153"
           width="14"
           height="17"
           x="253"
           y="172" /><path
           transform="translate(0,-244)"
           sodipodi:nodetypes="ccsscc"
           inkscape:connector-curvature="0"
           id="path1155"
           d="m 171,511 -14,14 h 29 c 1.662,0 3,-1.338 3,-3 v -11 z"
           style="fill:#3f51b5;fill-opacity:1;stroke:none" /><path
           sodipodi:nodetypes="cccssc"
           inkscape:connector-curvature="0"
           id="path1157"
           transform="translate(0,-244)"
           d="m 171,483 v 14 h 18 v -11 c 0,-1.662 -1.338,-3 -3,-3 z"
           style="fill:#2196f3;fill-opacity:1;stroke:none" /><path
           clip-path="url(#clipPath4412)"
           sodipodi:nodetypes="sscccsss"
           inkscape:connector-curvature="0"
           id="path1159"
           d="m 147,243 c 0,-1.662 1.338,-3 3,-3 h 25 v 28 l -14,14 h -11 c -1.662,0 -3,-1.338 -3,-3 z"
           style="opacity:0.2;fill:#000000;fill-opacity:1;stroke:none;filter:url(#filter4420)" /><path
           style="fill:#e6e6e6;fill-opacity:1;stroke:none"
           d="m 147,242 c 0,-1.662 1.338,-3 3,-3 h 25 v 28 l -14,14 h -11 c -1.662,0 -3,-1.338 -3,-3 z"
           id="path1161"
           inkscape:connector-curvature="0"
           sodipodi:nodetypes="sscccsss" /><path
           sodipodi:nodetypes="sscsscsss"
           inkscape:connector-curvature="0"
           id="path1163"
           d="m 150,239 c -1.662,0 -3,1.338 -3,3 v 1 c 0,-1.662 1.338,-3 3,-3 h 36 c 1.662,0 3,1.338 3,3 v -1 c 0,-1.662 -1.338,-3 -3,-3 z"
           style="opacity:0.2;fill:#ffffff;fill-opacity:1;stroke:none" /><path
           sodipodi:nodetypes="ccccc"
           inkscape:connector-curvature="0"
           id="path1165"
           d="m 161,281 v -11 c 0,0 0,-3 3,-3 h 11 z"
           style="fill:#b3b3b3;fill-opacity:1;fill-rule:evenodd;stroke:none;stroke-width:1px;stroke-linecap:butt;stroke-linejoin:miter;stroke-opacity:1" /><rect
           y="263"
           x="107"
           height="10"
           width="20"
           id="rect1167"
           style="opacity:1;fill:#03a9f4;fill-opacity:1;stroke:none;stroke-width:2;stroke-linecap:butt;stroke-linejoin:miter;stroke-miterlimit:4;stroke-dasharray:none;stroke-opacity:1" /><path
           clip-path="url(#clipPath4490)"
           style="opacity:0.2;fill:#000000;fill-opacity:1;stroke:none;filter:url(#filter4494)"
           d="m 117,254 h -10 -7 c -1.662,0 -3,1.338 -3,3 v 24 c 0,1.662 1.338,3 3,3 h 7 l 10,-10 z"
           id="path1169"
           inkscape:connector-curvature="0"
           sodipodi:nodetypes="ccssssccc" /><path
           sodipodi:nodetypes="cccssc"
           inkscape:connector-curvature="0"
           id="path1171"
           transform="translate(0,-244)"
           d="m 107,497 v 10 h 20 v -7 c 0,-1.662 -1.338,-3 -3,-3 z"
           style="fill:#2196f3;fill-opacity:1;stroke:none" /><path
           sodipodi:nodetypes="ccssssccc"
           inkscape:connector-curvature="0"
           id="path1173"
           d="m 117,253 h -10 -7 c -1.662,0 -3,1.338 -3,3 v 24 c 0,1.662 1.338,3 3,3 h 7 l 10,-10 z"
           style="fill:#f9f9f9;fill-opacity:1;stroke:none" /><path
           style="fill:#b3b3b3;fill-opacity:1;fill-rule:evenodd;stroke:none;stroke-width:1px;stroke-linecap:butt;stroke-linejoin:miter;stroke-opacity:1"
           d="m 107,283 v -7 c 0,0 0,-3 3,-3 h 7 z"
           id="path1175"
           inkscape:connector-curvature="0"
           sodipodi:nodetypes="ccccc" /><path
           sodipodi:nodetypes="sscsscsss"
           inkscape:connector-curvature="0"
           id="path1177"
           d="m 100,253 c -1.662,0 -3,1.338 -3,3 v 1 c 0,-1.662 1.338,-3 3,-3 h 24 c 1.662,0 3,1.338 3,3 v -1 c 0,-1.662 -1.338,-3 -3,-3 z"
           style="opacity:0.2;fill:#ffffff;fill-opacity:1;stroke:none" /><path
           sodipodi:nodetypes="ccccc"
           inkscape:connector-curvature="0"
           id="path1179"
           d="M 500,-52 H 688 V 108 H 500 Z"
           style="opacity:1;fill:#03a9f4;fill-opacity:1;stroke:none;stroke-width:2;stroke-linecap:butt;stroke-linejoin:miter;stroke-miterlimit:4;stroke-dasharray:none;stroke-opacity:1" /><path
           sodipodi:nodetypes="ccsscc"
           inkscape:connector-curvature="0"
           id="path1181"
           transform="translate(0,-244)"
           d="M 448,352 300,496 h 352 c 19.944,0 36,-16.056 36,-36 V 352 Z"
           style="fill:#3f51b5;fill-opacity:1;stroke:none" /><path
           clip-path="url(#clipPath4587)"
           style="opacity:0.2;fill:#000000;fill-opacity:1;stroke:none;stroke-width:2;stroke-linecap:butt;stroke-linejoin:miter;stroke-miterlimit:4;stroke-dasharray:none;stroke-opacity:1;filter:url(#filter4595)"
           d="M 528,-194 H 389 276 c -19.944,0 -36,16.056 -36,36 v 376 c 0,19.944 16.056,36 36,36 H 384 L 528,110 Z"
           id="path1183"
           inkscape:connector-curvature="0"
           sodipodi:nodetypes="ccssssccc" /><path
           sodipodi:nodetypes="ccssssccc"
           inkscape:connector-curvature="0"
           id="path1185"
           d="M 528,-196 H 389 276 c -19.944,0 -36,16.056 -36,36 v 376 c 0,19.944 16.056,36 36,36 H 384 L 528,108 Z"
           style="opacity:1;fill:#f2f2f2;fill-opacity:1;stroke:none;stroke-width:2;stroke-linecap:butt;stroke-linejoin:miter;stroke-miterlimit:4;stroke-dasharray:none;stroke-opacity:1" /><path
           inkscape:connector-curvature="0"
           id="path1187"
           transform="translate(0,-244)"
           d="m 276,48 c -19.944,0 -36,16.056 -36,36 v 2 c 0,-19.944 16.056,-36 36,-36 h 376 c 19.944,0 36,16.056 36,36 V 84 C 688,64.056 671.944,48 652,48 Z"
           style="opacity:0.2;fill:#ffffff;fill-opacity:1;stroke:none" /><path
           style="fill:#b3b3b3;fill-opacity:1;stroke:none"
           d="M 384,252 528,108 H 420 c -19.944,0 -36,16.056 -36,36 z"
           id="path1189"
           inkscape:connector-curvature="0"
           sodipodi:nodetypes="ccssc" /><path
           sodipodi:nodetypes="csssscc"
           inkscape:connector-curvature="0"
           id="path1191"
           transform="translate(0,-244)"
           d="m 16,523 v 3 c 0,1.108 0.892,2 2,2 h 12 c 1.108,0 2,-0.892 2,-2 v -3 z"
           style="display:inline;fill:#3f51b5;fill-opacity:1;stroke:none;enable-background:new" /><path
           sodipodi:nodetypes="cssssccc"
           inkscape:connector-curvature="0"
           style="display:inline;fill:#e6e6e6;fill-opacity:1;stroke:none;enable-background:new"
           d="m 27,268 h -9 c -1.108,0 -2,0.892 -2,2 v 12 c 0,1.108 0.892,2 2,2 h 4 l 5,-5 z"
           id="path1193" /><path
           sodipodi:nodetypes="ccccc"
           inkscape:connector-curvature="0"
           id="path1195"
           d="m 22,284 v -3 c 0,0 0,-2 2,-2 h 3 z"
           style="fill:#b3b3b3;fill-opacity:1;fill-rule:evenodd;stroke:none;stroke-width:1px;stroke-linecap:butt;stroke-linejoin:miter;stroke-opacity:1" /></g></g><g
       id="g1900"
       transform="translate(0,244)" /><g
       id="g1897-0"
       transform="translate(0,244)"><g
         id="use4545-3"
         style="display:inline;enable-background:new"
         transform="matrix(0.75000002,0,0,-0.75000002,39.79941,-1993.8216)"><rect
           transform="matrix(0,1,1,0,0,0)"
           style="fill:#03a9f4;fill-opacity:1;stroke:none"
           id="rect1383"
           width="6"
           height="9"
           x="273"
           y="23" /><rect
           ry="2"
           rx="2"
           y="-74"
           x="-284"
           height="21"
           width="21"
           id="rect1385"
           style="opacity:0.2;fill:#000000;fill-opacity:1;stroke:none"
           transform="matrix(0,-1,-1,0,0,0)" /><rect
           y="65.5"
           x="269"
           height="8.5"
           width="7"
           id="rect1387"
           style="fill:#03a9f4;fill-opacity:1;stroke:none"
           transform="matrix(0,1,1,0,0,0)" /><path
           style="fill:#3f51b5;fill-opacity:1;stroke:none"
           d="m 65,276 -7,7 h 14 c 2,0 2,-2 2,-2 v -5 z"
           id="path1389"
           inkscape:connector-curvature="0"
           sodipodi:nodetypes="cccccc" /><path
           style="fill:#2196f3;fill-opacity:1;stroke:none"
           d="m 65,262 v 7 h 9 v -5 c 0,0 0,-2 -2,-2 z"
           id="path1391"
           inkscape:connector-curvature="0"
           sodipodi:nodetypes="cccccc" /><path
           transform="matrix(0.5,0,0,0.5,-20.5,142.5)"
           style="opacity:0.2;fill:#000000;fill-opacity:1;stroke:none;filter:url(#filter4420)"
           d="m 147,243 c 0,-1.662 1.338,-3 3,-3 h 25 v 28 l -14,14 h -11 c -1.662,0 -3,-1.338 -3,-3 z"
           id="path1393"
           inkscape:connector-curvature="0"
           sodipodi:nodetypes="sscccsss"
           clip-path="url(#clipPath4412)" /><path
           sodipodi:nodetypes="cccccccc"
           inkscape:connector-curvature="0"
           id="path1395"
           d="m 53,264 c 0,-2 2,-2 2,-2 h 12 v 14 l -7,7 h -5 c 0,0 -2,0 -2,-2 z"
           style="fill:#e6e6e6;fill-opacity:1;stroke:none" /><path
           style="fill:#b3b3b3;fill-opacity:1;fill-rule:evenodd;stroke:none;stroke-width:1px;stroke-linecap:butt;stroke-linejoin:miter;stroke-opacity:1"
           d="m 60,283 v -5 c 0,0 0,-2 2,-2 h 5 z"
           id="path1397"
           inkscape:connector-curvature="0"
           sodipodi:nodetypes="ccccc" /><rect
           ry="36"
           rx="36"
           y="-688"
           x="-254"
           height="448"
           width="448"
           id="rect1399"
           style="opacity:0.2;fill:#000000;fill-opacity:1;stroke:none"
           transform="matrix(0,-1,-1,0,0,0)" /><rect
           transform="matrix(0,-1,-1,0,0,0)"
           style="opacity:0.1;fill:#000000;fill-opacity:1;stroke:none;filter:url(#filter4415)"
           id="rect1401"
           width="448"
           height="448"
           x="-256"
           y="-688"
           rx="36"
           ry="36" /><rect
           ry="36"
           rx="36"
           y="-688"
           x="-256"
           height="448"
           width="448"
           id="rect1403"
           style="opacity:0.2;fill:#000000;fill-opacity:1;stroke:none;filter:url(#filter4415)"
           transform="matrix(0,-1,-1,0,0,0)" /><rect
           transform="matrix(0,-1,-1,0,0,0)"
           style="opacity:0.2;fill:#000000;fill-opacity:1;stroke:none"
           id="rect1405"
           width="41.999985"
           height="42"
           x="-282"
           y="-189"
           rx="3"
           ry="3" /><rect
           transform="matrix(0,-1,-1,0,0,0)"
           style="opacity:0.2;fill:#000000;fill-opacity:1;stroke:none"
           id="rect1407"
           width="30"
           height="30"
           x="-284"
           y="-127"
           rx="3"
           ry="3" /><path
           sodipodi:nodetypes="ccsscc"
           inkscape:connector-curvature="0"
           id="path1409"
           transform="translate(0,-244)"
           d="m 113,517 -10,10 h 21 c 1.662,0 3,-1.338 3,-3 v -7 z"
           style="fill:#3f51b5;fill-opacity:1;stroke:none" /><path
           sodipodi:nodetypes="ssccsss"
           inkscape:connector-curvature="0"
           id="path1411"
           transform="translate(0,-244)"
           d="m 18,512 c -1.108,0 -2,0.892 -2,2 v 3 h 16 v -3 c 0,-1.108 -0.892,-2 -2,-2 z"
           style="display:inline;fill:#2196f3;fill-opacity:1;stroke:none;enable-background:new" /><g
           transform="translate(186.5001,-174.5)"
           style="display:inline"
           inkscape:label="places"
           id="g1413" /><g
           transform="translate(-54.5001,442.5)"
           style="display:inline"
           inkscape:label="mimetypes"
           id="g1415" /><g
           transform="translate(-54.5001,442.5)"
           style="display:inline"
           inkscape:label="emblems"
           id="g1417" /><g
           transform="translate(-54.5001,442.5)"
           style="display:inline"
           inkscape:label="emotes"
           id="g1419" /><g
           transform="translate(186.5001,-24.5)"
           style="display:inline"
           inkscape:label="categories"
           id="g1421" /><g
           transform="translate(186.5001,-24.5)"
           style="display:inline"
           inkscape:label="apps"
           id="g1423" /><g
           transform="translate(-54.5001,442.5)"
           style="display:inline"
           inkscape:label="actions"
           id="g1425" /><path
           sodipodi:nodetypes="cccssc"
           inkscape:connector-curvature="0"
           id="path1427"
           transform="translate(0,-244)"
           d="M 488,48 V 192 H 688 V 84 C 688,64.056 671.944,48 652,48 Z"
           style="fill:#2196f3;fill-opacity:1;stroke:none" /><path
           sodipodi:nodetypes="sscsscsss"
           inkscape:connector-curvature="0"
           id="path1429"
           transform="translate(0,-244)"
           d="m 55,506 c -1.108,0 -2,0.892 -2,2 v 1 c 0,-1.108 0.892,-2 2,-2 h 17 c 1.108,0 2,0.892 2,2 v -1 c 0,-1.108 -0.892,-2 -2,-2 z"
           style="opacity:0.2;fill:#ffffff;fill-opacity:1;stroke:none" /><rect
           transform="matrix(0,1,1,0,0,0)"
           style="fill:#03a9f4;fill-opacity:1;stroke:none"
           id="rect1431"
           width="14"
           height="17"
           x="253"
           y="172" /><path
           transform="translate(0,-244)"
           sodipodi:nodetypes="ccsscc"
           inkscape:connector-curvature="0"
           id="path1433"
           d="m 171,511 -14,14 h 29 c 1.662,0 3,-1.338 3,-3 v -11 z"
           style="fill:#3f51b5;fill-opacity:1;stroke:none" /><path
           sodipodi:nodetypes="cccssc"
           inkscape:connector-curvature="0"
           id="path1435"
           transform="translate(0,-244)"
           d="m 171,483 v 14 h 18 v -11 c 0,-1.662 -1.338,-3 -3,-3 z"
           style="fill:#2196f3;fill-opacity:1;stroke:none" /><path
           clip-path="url(#clipPath4412)"
           sodipodi:nodetypes="sscccsss"
           inkscape:connector-curvature="0"
           id="path1437"
           d="m 147,243 c 0,-1.662 1.338,-3 3,-3 h 25 v 28 l -14,14 h -11 c -1.662,0 -3,-1.338 -3,-3 z"
           style="opacity:0.2;fill:#000000;fill-opacity:1;stroke:none;filter:url(#filter4420)" /><path
           style="fill:#e6e6e6;fill-opacity:1;stroke:none"
           d="m 147,242 c 0,-1.662 1.338,-3 3,-3 h 25 v 28 l -14,14 h -11 c -1.662,0 -3,-1.338 -3,-3 z"
           id="path1439"
           inkscape:connector-curvature="0"
           sodipodi:nodetypes="sscccsss" /><path
           sodipodi:nodetypes="sscsscsss"
           inkscape:connector-curvature="0"
           id="path1441"
           d="m 150,239 c -1.662,0 -3,1.338 -3,3 v 1 c 0,-1.662 1.338,-3 3,-3 h 36 c 1.662,0 3,1.338 3,3 v -1 c 0,-1.662 -1.338,-3 -3,-3 z"
           style="opacity:0.2;fill:#ffffff;fill-opacity:1;stroke:none" /><path
           sodipodi:nodetypes="ccccc"
           inkscape:connector-curvature="0"
           id="path1443"
           d="m 161,281 v -11 c 0,0 0,-3 3,-3 h 11 z"
           style="fill:#b3b3b3;fill-opacity:1;fill-rule:evenodd;stroke:none;stroke-width:1px;stroke-linecap:butt;stroke-linejoin:miter;stroke-opacity:1" /><rect
           y="263"
           x="107"
           height="10"
           width="20"
           id="rect1445"
           style="opacity:1;fill:#03a9f4;fill-opacity:1;stroke:none;stroke-width:2;stroke-linecap:butt;stroke-linejoin:miter;stroke-miterlimit:4;stroke-dasharray:none;stroke-opacity:1" /><path
           clip-path="url(#clipPath4490)"
           style="opacity:0.2;fill:#000000;fill-opacity:1;stroke:none;filter:url(#filter4494)"
           d="m 117,254 h -10 -7 c -1.662,0 -3,1.338 -3,3 v 24 c 0,1.662 1.338,3 3,3 h 7 l 10,-10 z"
           id="path1447"
           inkscape:connector-curvature="0"
           sodipodi:nodetypes="ccssssccc" /><path
           sodipodi:nodetypes="cccssc"
           inkscape:connector-curvature="0"
           id="path1449"
           transform="translate(0,-244)"
           d="m 107,497 v 10 h 20 v -7 c 0,-1.662 -1.338,-3 -3,-3 z"
           style="fill:#2196f3;fill-opacity:1;stroke:none" /><path
           sodipodi:nodetypes="ccssssccc"
           inkscape:connector-curvature="0"
           id="path1451"
           d="m 117,253 h -10 -7 c -1.662,0 -3,1.338 -3,3 v 24 c 0,1.662 1.338,3 3,3 h 7 l 10,-10 z"
           style="fill:#f9f9f9;fill-opacity:1;stroke:none" /><path
           style="fill:#b3b3b3;fill-opacity:1;fill-rule:evenodd;stroke:none;stroke-width:1px;stroke-linecap:butt;stroke-linejoin:miter;stroke-opacity:1"
           d="m 107,283 v -7 c 0,0 0,-3 3,-3 h 7 z"
           id="path1453"
           inkscape:connector-curvature="0"
           sodipodi:nodetypes="ccccc" /><path
           sodipodi:nodetypes="sscsscsss"
           inkscape:connector-curvature="0"
           id="path1455"
           d="m 100,253 c -1.662,0 -3,1.338 -3,3 v 1 c 0,-1.662 1.338,-3 3,-3 h 24 c 1.662,0 3,1.338 3,3 v -1 c 0,-1.662 -1.338,-3 -3,-3 z"
           style="opacity:0.2;fill:#ffffff;fill-opacity:1;stroke:none" /><path
           sodipodi:nodetypes="ccccc"
           inkscape:connector-curvature="0"
           id="path1457"
           d="M 500,-52 H 688 V 108 H 500 Z"
           style="opacity:1;fill:#03a9f4;fill-opacity:1;stroke:none;stroke-width:2;stroke-linecap:butt;stroke-linejoin:miter;stroke-miterlimit:4;stroke-dasharray:none;stroke-opacity:1" /><path
           sodipodi:nodetypes="ccsscc"
           inkscape:connector-curvature="0"
           id="path1459"
           transform="translate(0,-244)"
           d="M 448,352 300,496 h 352 c 19.944,0 36,-16.056 36,-36 V 352 Z"
           style="fill:#3f51b5;fill-opacity:1;stroke:none" /><path
           clip-path="url(#clipPath4587)"
           style="opacity:0.2;fill:#000000;fill-opacity:1;stroke:none;stroke-width:2;stroke-linecap:butt;stroke-linejoin:miter;stroke-miterlimit:4;stroke-dasharray:none;stroke-opacity:1;filter:url(#filter4595)"
           d="M 528,-194 H 389 276 c -19.944,0 -36,16.056 -36,36 v 376 c 0,19.944 16.056,36 36,36 H 384 L 528,110 Z"
           id="path1461"
           inkscape:connector-curvature="0"
           sodipodi:nodetypes="ccssssccc" /><path
           sodipodi:nodetypes="ccssssccc"
           inkscape:connector-curvature="0"
           id="path1463"
           d="M 528,-196 H 389 276 c -19.944,0 -36,16.056 -36,36 v 376 c 0,19.944 16.056,36 36,36 H 384 L 528,108 Z"
           style="opacity:1;fill:#f2f2f2;fill-opacity:1;stroke:none;stroke-width:2;stroke-linecap:butt;stroke-linejoin:miter;stroke-miterlimit:4;stroke-dasharray:none;stroke-opacity:1" /><path
           inkscape:connector-curvature="0"
           id="path1465"
           transform="translate(0,-244)"
           d="m 276,48 c -19.944,0 -36,16.056 -36,36 v 2 c 0,-19.944 16.056,-36 36,-36 h 376 c 19.944,0 36,16.056 36,36 V 84 C 688,64.056 671.944,48 652,48 Z"
           style="opacity:0.2;fill:#ffffff;fill-opacity:1;stroke:none" /><path
           style="fill:#b3b3b3;fill-opacity:1;stroke:none"
           d="M 384,252 528,108 H 420 c -19.944,0 -36,16.056 -36,36 z"
           id="path1467"
           inkscape:connector-curvature="0"
           sodipodi:nodetypes="ccssc" /><path
           sodipodi:nodetypes="csssscc"
           inkscape:connector-curvature="0"
           id="path1469"
           transform="translate(0,-244)"
           d="m 16,523 v 3 c 0,1.108 0.892,2 2,2 h 12 c 1.108,0 2,-0.892 2,-2 v -3 z"
           style="display:inline;fill:#3f51b5;fill-opacity:1;stroke:none;enable-background:new" /><path
           sodipodi:nodetypes="cssssccc"
           inkscape:connector-curvature="0"
           style="display:inline;fill:#e6e6e6;fill-opacity:1;stroke:none;enable-background:new"
           d="m 27,268 h -9 c -1.108,0 -2,0.892 -2,2 v 12 c 0,1.108 0.892,2 2,2 h 4 l 5,-5 z"
           id="path1471" /><path
           sodipodi:nodetypes="ccccc"
           inkscape:connector-curvature="0"
           id="path1473"
           d="m 22,284 v -3 c 0,0 0,-2 2,-2 h 3 z"
           style="fill:#b3b3b3;fill-opacity:1;fill-rule:evenodd;stroke:none;stroke-width:1px;stroke-linecap:butt;stroke-linejoin:miter;stroke-opacity:1" /></g></g><g
       id="g1900-8"
       transform="translate(0,244)" /><g
       transform="matrix(0.56250003,0,0,0.56250003,-349.32799,81.417155)"
       style="display:inline"
       inkscape:label="places"
       id="g1691" /><g
       transform="matrix(0.56250003,0,0,0.56250003,-484.89061,428.47967)"
       style="display:inline"
       inkscape:label="mimetypes"
       id="g1693" /><g
       transform="matrix(0.56250003,0,0,0.56250003,-484.89061,428.47967)"
       style="display:inline"
       inkscape:label="emblems"
       id="g1695" /><g
       transform="matrix(0.56250003,0,0,0.56250003,-484.89061,428.47967)"
       style="display:inline"
       inkscape:label="emotes"
       id="g1697" /><g
       transform="matrix(0.56250003,0,0,0.56250003,-349.32799,165.79216)"
       style="display:inline"
       inkscape:label="categories"
       id="g1699" /><g
       transform="matrix(0.56250003,0,0,0.56250003,-349.32799,165.79216)"
       style="display:inline"
       inkscape:label="apps"
       id="g1701" /><g
       transform="matrix(0.56250003,0,0,0.56250003,-484.89061,428.47967)"
       style="display:inline"
       inkscape:label="actions"
       id="g1703" /><text
       xml:space="preserve"
       style="font-style:normal;font-weight:normal;font-size:196px;line-height:1.25;font-family:sans-serif;fill:#3f51b5;fill-opacity:1;stroke:none;stroke-width:0.75"
       x="63.803009"
       y="-318.08383"
       id="text1863"
       transform="scale(1,-1)"><tspan
         sodipodi:role="line"
         id="tspan1861"
         x="63.803009"
         y="-318.08383"
         style="font-style:normal;font-variant:normal;font-weight:bold;font-stretch:condensed;font-size:196px;font-family:'Agency FB';-inkscape-font-specification:'Agency FB Bold Condensed';fill:#3f51b5;fill-opacity:1;stroke-width:0.75">n</tspan></text></g></svg>
