<?xml version="1.0" encoding="utf-8"?>
<!-- Generator: Adobe Illustrator 15.0.0, SVG Export Plug-In . SVG Version: 6.00 Build 0)  -->
<!DOCTYPE svg PUBLIC "-//W3C//DTD SVG 1.1//EN" "http://www.w3.org/Graphics/SVG/1.1/DTD/svg11.dtd">
<svg version="1.1" id="Ebene_1" xmlns="http://www.w3.org/2000/svg" xmlns:xlink="http://www.w3.org/1999/xlink" x="0px" y="0px"
	 width="56px" height="56px" viewBox="0 0 56 56" enable-background="new 0 0 56 56" xml:space="preserve">
<g>
	<path opacity="0.2" enable-background="new    " d="M10.5,3.5C9.115,3.5,8,4.615,8,6v45c0,1.385,1.115,2.5,2.5,2.5h35
		c1.385,0,2.5-1.115,2.5-2.5V18.5l-13.75-1.25L33,3.5H10.5z"/>
	<path fill="#FFFFFF" d="M10.5,2.5C9.115,2.5,8,3.615,8,5v45c0,1.385,1.115,2.5,2.5,2.5h35c1.385,0,2.5-1.115,2.5-2.5V17.5
		l-13.75-1.25L33,2.5H10.5z"/>
	<g transform="translate(0 -1028.4)">
		<path fill="#ECF0F1" d="M21.04,1043.195l13.92,1.74v33.061l-13.92-1.74V1043.195z"/>
		<path fill="#BDC3C7" d="M10.6,1044.935l10.44-1.74v33.061l-10.44,1.74V1044.935z"/>
		<path fill="#BDC3C7" d="M34.96,1044.935l10.44-1.74v33.061l-10.44,1.74V1044.935z"/>
		<path fill="#27AE60" d="M12.34,1046.675l8.7-1.74v29.578l-8.7,1.742V1046.675z"/>
		<path fill="#2ECC71" d="M21.04,1044.935l13.92,1.74v29.579l-13.92-1.74V1044.935z"/>
		<path fill="#27AE60" d="M43.66,1074.515l-8.7,1.74v-29.581l8.7-1.74V1074.515z"/>
		<path fill="#F39C12" d="M17.016,1045.633l-4.024,0.87l8.048,8.528v-5.045L17.016,1045.633z"/>
		<path fill="#F3B612" d="M43.66,1071.037l-8.7,1.738v-10.439l8.7-5.222V1071.037z"/>
		<path fill="#2980B9" d="M43.66,1074.515l-8.7,1.74v-10.439l8.7-5.221V1074.515z"/>
		<path fill="#F1C40F" d="M21.04,1064.075l13.92-1.739v10.439l-13.92-1.739V1064.075z"/>
		<path fill="#3498DB" d="M21.04,1067.554l13.92-1.738v10.439l-13.92-1.74V1067.554z"/>
		<path fill="#F3B612" d="M12.34,1069.297l8.7-5.221v6.961l-8.7,1.738V1069.297z"/>
		<path fill="#2980B9" d="M12.34,1072.775l8.7-5.223v6.961l-8.7,1.74V1072.775z"/>
		<path fill="#F1C40F" d="M21.04,1055.029v-5.043l6.96,15.068h-2.559L21.04,1055.029z"/>
	</g>
	<path opacity="0.2" enable-background="new    " d="M33,3.5V16c0,1.381,1.119,2.5,2.5,2.5H48L33,3.5z"/>
	<path fill="#FAFAFA" d="M33,2.5V15c0,1.381,1.119,2.5,2.5,2.5H48L33,2.5z"/>
	<path opacity="0.2" fill="#FFFFFF" enable-background="new    " d="M10.5,2.5C9.115,2.5,8,3.615,8,5v1c0-1.385,1.115-2.5,2.5-2.5
		H33c0-1,0,0,0-1H10.5z"/>
</g>
<g>
	<path fill="#F0828D" d="M38.25,34.503h-1.5v18h1.5V34.503z M29.25,39.003h-1.5v9h1.5V39.003z"/>
	<path fill="#E73144" d="M29.25,39.003h9v-4.5l9.75,9l-9.75,9v-4.5h-9V39.003z"/>
</g>
</svg>
