<?xml version="1.0" encoding="UTF-8" standalone="no"?>
<svg
   xmlns:dc="http://purl.org/dc/elements/1.1/"
   xmlns:cc="http://creativecommons.org/ns#"
   xmlns:rdf="http://www.w3.org/1999/02/22-rdf-syntax-ns#"
   xmlns:svg="http://www.w3.org/2000/svg"
   xmlns="http://www.w3.org/2000/svg"
   xmlns:sodipodi="http://sodipodi.sourceforge.net/DTD/sodipodi-0.dtd"
   xmlns:inkscape="http://www.inkscape.org/namespaces/inkscape"
   width="512"
   height="512"
   viewBox="0 0 135.46667 135.46667"
   version="1.1"
   id="svg8"
   inkscape:version="1.0.2-2 (e86c870879, 2021-01-15)"
   sodipodi:docname="replace-inf.svg">
  <defs
     id="defs2" />
  <sodipodi:namedview
     id="base"
     pagecolor="#ffffff"
     bordercolor="#666666"
     borderopacity="1.0"
     inkscape:pageopacity="0.0"
     inkscape:pageshadow="2"
     inkscape:zoom="1.4"
     inkscape:cx="396.59355"
     inkscape:cy="274.28571"
     inkscape:document-units="mm"
     inkscape:current-layer="layer1"
     inkscape:document-rotation="0"
     showgrid="false"
     units="px"
     inkscape:window-width="1920"
     inkscape:window-height="1001"
     inkscape:window-x="-9"
     inkscape:window-y="-9"
     inkscape:window-maximized="1" />
  <metadata
     id="metadata5">
    <rdf:RDF>
      <cc:Work
         rdf:about="">
        <dc:format>image/svg+xml</dc:format>
        <dc:type
           rdf:resource="http://purl.org/dc/dcmitype/StillImage" />
        <dc:title></dc:title>
      </cc:Work>
    </rdf:RDF>
  </metadata>
  <g
     inkscape:label="Ebene 1"
     inkscape:groupmode="layer"
     id="layer1">
    <text
       xml:space="preserve"
       style="font-style:normal;font-weight:normal;font-size:50.8px;line-height:1.25;font-family:sans-serif;fill:#e72e44;fill-opacity:1;stroke:none;stroke-width:0.264583"
       x="27.046726"
       y="49.781548"
       id="text835"><tspan
         sodipodi:role="line"
         id="tspan833"
         x="27.046726"
         y="49.781548"
         style="font-style:normal;font-variant:normal;font-weight:bold;font-stretch:normal;font-size:70.5556px;font-family:Calibri;-inkscape-font-specification:'Calibri Bold';fill:#e72e44;fill-opacity:1;stroke-width:0.264583">inf</tspan></text>
    <path
       style="fill:none;stroke:#000000;stroke-width:4.8156;stroke-linecap:butt;stroke-linejoin:miter;stroke-miterlimit:4;stroke-dasharray:none;stroke-opacity:1"
       d="M 2.1544653,30.464883 H 133.3122"
       id="path837" />
    <g
       id="g976"
       transform="translate(2.1120559,1.5875)">
      <text
         xml:space="preserve"
         style="font-style:normal;font-weight:normal;font-size:50.8px;line-height:1.25;font-family:sans-serif;fill:#2ecc71;fill-opacity:1;stroke:none;stroke-width:0.264583"
         x="73.516373"
         y="89.620247"
         id="text835-1"><tspan
           sodipodi:role="line"
           id="tspan833-5"
           x="73.516373"
           y="89.620247"
           style="font-style:normal;font-variant:normal;font-weight:bold;font-stretch:normal;font-size:52.9167px;font-family:Calibri;-inkscape-font-specification:'Calibri Bold';fill:#2ecc71;fill-opacity:1;stroke-width:0.264583">22</tspan></text>
      <text
         xml:space="preserve"
         style="font-style:normal;font-weight:normal;font-size:50.8px;line-height:1.25;font-family:sans-serif;fill:#2ecc71;fill-opacity:1;stroke:none;stroke-width:0.264583"
         x="73.028305"
         y="127.84234"
         id="text835-1-2"><tspan
           sodipodi:role="line"
           id="tspan833-5-0"
           x="73.028305"
           y="127.84234"
           style="font-style:normal;font-variant:normal;font-weight:bold;font-stretch:normal;font-size:52.9167px;font-family:Calibri;-inkscape-font-specification:'Calibri Bold';fill:#2ecc71;fill-opacity:1;stroke-width:0.264583">1E</tspan></text>
      <text
         xml:space="preserve"
         style="font-style:normal;font-weight:normal;font-size:58.8005px;line-height:1.25;font-family:sans-serif;fill:#2ecc71;fill-opacity:1;stroke:none;stroke-width:0.306253"
         x="4.1313758"
         y="110.21513"
         id="text835-1-2-2"
         transform="scale(0.86393724,1.1574915)"><tspan
           sodipodi:role="line"
           id="tspan833-5-0-0"
           x="4.1313758"
           y="110.21513"
           style="font-style:normal;font-variant:normal;font-weight:bold;font-stretch:normal;font-size:81.6675px;font-family:Calibri;-inkscape-font-specification:'Calibri Bold';fill:#2ecc71;fill-opacity:1;stroke-width:0.306253">0x</tspan></text>
    </g>
  </g>
</svg>
